{
  "name": "cats-math-app",
  "description": "An empty new project",
  "slug": "cats-math-app",
  "privacy": "public",
  "sdkVersion": "17.0.0",
  "version": "1.0.0",
  "orientation": "portrait",
  "primaryColor": "#cccccc",
  "icon": "./assets/icons/app.png",
  "loading": {
    "icon": "./assets/icons/loading.png",
    "hideExponentText": false
  },
  "packagerOpts": {
    "assetExts": ["ttf", "mp4"]
  },
  "ios": {
    "supportsTablet": true,
    "bundleIdentifier": "com.duhseekoh.catsmath"
  },
  "android": {
    "package": "com.duhseekoh.catsmath"
  }
}
